# Min-max energy optimisation for 1K data aggregation 
#
# (C) Copyright 2018 Emma Fitzgerald, Artur Tomaszewski 
# emma.fitzgerald@eit.lth.se, artur@tele.pw.edu.pl
#
# This program is distributed under the terms of the GNU Lesser General Public License.
#
# This program is free software: you can redistribute it and/or modify
# it under the terms of the GNU Lesser General Public License as published by
# the Free Software Foundation, either version 3 of the License, or
# (at your option) any later version.
#
# This program is distributed in the hope that it will be useful,
# but WITHOUT ANY WARRANTY; without even the implied warranty of
# MERCHANTABILITY or FITNESS FOR A PARTICULAR PURPOSE. See the
# GNU Lesser General Public License for more details.
#
# You should have received a copy of the GNU Lesser General Public License
# along with this program.  If not, see <http://www.gnu.org/licenses/>.
#



# Scenario playground
param area_width;
param area_height;

# Radio parameters
#param pathloss_Exponent;
#param tx_power_dist;
#param default_tx_powerr;

#param noise_power;
#param SINR_thresh;

# Nodes
param sink;
set sensors;
set aggregators;
set gateways;
set nodes = sensors union aggregators union gateways union {sink};
param node_x {nodes} in interval (0, area_width);
param node_y {nodes} in interval (0, area_height);

# Arcs
set arcs;
param arc_start {arcs} in nodes;
param arc_end {arcs} in nodes;
param arc_length {a in arcs} = sqrt((node_x[arc_start[a]]**2.0) + (node_y[arc_end[a]]**2.0));
set delta_in {n in nodes} = {a in arcs: arc_end[a] = n};
set delta_out {n in nodes} = {a in arcs: arc_start[a] = n};
param max_in_degree = max{n in nodes}(card(delta_in[n]));

# Data streams
set streams;
set origins {streams} within sensors;
set destinations {streams} within gateways;
param packets_needed {streams};

# Energy costs
param trans_energy;
param trans_energy_tx = 0.6 * trans_energy;
param trans_energy_rx = 0.4 * trans_energy;
param aggr_energy;

# Decision variables
var packet_collected {s in streams, origins[s]} binary;	# Whether or not the packet generated by each origin in each stream 
							# reaches the sink
var arc_used {streams, arcs} binary;	    # Whether an arc is used to transmit any packet in a given stream
var flow {s in streams, origins[s], arcs} >= 0;   # Flow along a given arc, from a given origin in a given stream

var node_aggregates {streams, sensors union aggregators} binary;
var packets_aggregated {streams, sensors union aggregators} >= 0;

var total_trans_energy;  # Total energy used by all nodes for transmission
var total_aggr_energy;	# Total energy used by all nodes for aggregation

var max_energy >= 0;
var node_energy {sensors union aggregators} >= 0;
var node_stream_energy {streams, sensors union aggregators} >= 0;

# Objective function: minimise energy costs of the node that uses th most energy
minimize Max_energy:
    max_energy;

# Constraints

# Collect the required number of packets for each stream
subject to data_collection {s in streams}:
    sum{w in origins[s]} packet_collected[s, w] >= packets_needed[s];

subject to active_origins {s in streams, w in origins[s]}:
    packet_collected[s, w] = sum{a in delta_out[w]} arc_used[s, a];

subject to routing {s in streams, v in (sensors union aggregators union gateways)}:  
    sum{a in delta_out[v]} arc_used[s, a] <= 1;

subject to flow_from_origins {s in streams, w in origins[s]}:
    sum{a in delta_out[w]} flow[s, w, a] = packet_collected[s, w];

subject to flow_in_transit_nodes {s in streams, w in origins[s], v in ((sensors diff {w}) union aggregators union gateways)}:
    sum{a in delta_out[v]} flow[s, w, a] = sum{a in delta_in[v]} flow[s, w, a];

subject to flow_in_sink {s in streams, w in origins[s]}:
    sum{a in delta_in[sink]} flow[s, w, a] = packet_collected[s, w];

subject to flow_feasibility {s in streams, w in origins[s], a in arcs}:
    flow[s, w, a] <= arc_used[s, a];

subject to at_least_two {s in streams, v in sensors union aggregators}:
    node_aggregates[s, v] >= (1 / max_in_degree) * ((sum{a in delta_in[v]} arc_used[s, a]) - 1);

subject to count_packets {s in streams, v in sensors union aggregators}:
    packets_aggregated[s, v] >=  (sum{a in delta_in[v]} arc_used[s, a]) - 1;

subject to count_packets_origins {s in streams, v in origins[s]}:
    packets_aggregated[s, v] >=  (sum{a in delta_in[v]} arc_used[s, a]) + packet_collected[s, v] - 1;

#subject to transmission_cost:
#    total_trans_energy = trans_energy * sum{s in streams, a in (arcs diff delta_in[sink])} arc_used[s, a];
#
#subject to aggregation_cost:
#    total_aggr_energy = aggr_energy * sum{s in streams, v in sensors union aggregators} (packets_aggregated[s, v]);

subject to stream_cost{s in streams, v in sensors union aggregators}:
    node_stream_energy[s, v] = aggr_energy * packets_aggregated[s, v] + 
				trans_energy_tx * sum{a in delta_in[v]} arc_used[s, a] +
				trans_energy_rx * sum{a in delta_out[v]} arc_used[s, a];

subject to node_cost{v in sensors union aggregators}:
    node_energy[v] = sum{s in streams} node_stream_energy;

subject to most_energy{v in sensors union aggregators}:
    max_energy >= node_energy[v];
